info face=null size=16 bold=0 italic=0 charset=ASCII unicode=0 stretchH=100 smooth=1 aa=1 padding=0,0,0,0 spacing=1,1 
common lineHeight=20 base=26 scaleW=256 scaleH=256 pages=1 packed=0 
page id=0 file="AgencyFB.png"
chars count=255
char id=0    x=0    y=4    width=8    height=19    xoffset=0    yoffset=0    xadvance=7     page=0    chnl=0
char id=1    x=8    y=4    width=8    height=19    xoffset=0    yoffset=0    xadvance=7     page=0    chnl=0
char id=2    x=16    y=4    width=8    height=19    xoffset=0    yoffset=0    xadvance=7     page=0    chnl=0
char id=3    x=24    y=4    width=8    height=19    xoffset=0    yoffset=0    xadvance=7     page=0    chnl=0
char id=4    x=32    y=4    width=8    height=19    xoffset=0    yoffset=0    xadvance=7     page=0    chnl=0
char id=5    x=40    y=4    width=8    height=19    xoffset=0    yoffset=0    xadvance=7     page=0    chnl=0
char id=6    x=48    y=4    width=8    height=19    xoffset=0    yoffset=0    xadvance=7     page=0    chnl=0
char id=7    x=56    y=4    width=8    height=19    xoffset=0    yoffset=0    xadvance=7     page=0    chnl=0
char id=8    x=64    y=4    width=8    height=19    xoffset=0    yoffset=0    xadvance=7     page=0    chnl=0
char id=9    x=72    y=4    width=0    height=19    xoffset=0    yoffset=0    xadvance=-1     page=0    chnl=0
char id=10    x=72    y=4    width=0    height=19    xoffset=0    yoffset=0    xadvance=-1     page=0    chnl=0
char id=11    x=72    y=4    width=8    height=19    xoffset=0    yoffset=0    xadvance=7     page=0    chnl=0
char id=12    x=80    y=4    width=8    height=19    xoffset=0    yoffset=0    xadvance=7     page=0    chnl=0
char id=13    x=88    y=4    width=0    height=19    xoffset=0    yoffset=0    xadvance=-1     page=0    chnl=0
char id=14    x=88    y=4    width=8    height=19    xoffset=0    yoffset=0    xadvance=7     page=0    chnl=0
char id=15    x=96    y=4    width=8    height=19    xoffset=0    yoffset=0    xadvance=7     page=0    chnl=0
char id=16    x=104    y=4    width=8    height=19    xoffset=0    yoffset=0    xadvance=7     page=0    chnl=0
char id=17    x=112    y=4    width=8    height=19    xoffset=0    yoffset=0    xadvance=7     page=0    chnl=0
char id=18    x=120    y=4    width=8    height=19    xoffset=0    yoffset=0    xadvance=7     page=0    chnl=0
char id=19    x=128    y=4    width=8    height=19    xoffset=0    yoffset=0    xadvance=7     page=0    chnl=0
char id=20    x=136    y=4    width=8    height=19    xoffset=0    yoffset=0    xadvance=7     page=0    chnl=0
char id=21    x=144    y=4    width=8    height=19    xoffset=0    yoffset=0    xadvance=7     page=0    chnl=0
char id=22    x=152    y=4    width=8    height=19    xoffset=0    yoffset=0    xadvance=7     page=0    chnl=0
char id=23    x=160    y=4    width=8    height=19    xoffset=0    yoffset=0    xadvance=7     page=0    chnl=0
char id=24    x=168    y=4    width=8    height=19    xoffset=0    yoffset=0    xadvance=7     page=0    chnl=0
char id=25    x=176    y=4    width=8    height=19    xoffset=0    yoffset=0    xadvance=7     page=0    chnl=0
char id=26    x=184    y=4    width=8    height=19    xoffset=0    yoffset=0    xadvance=7     page=0    chnl=0
char id=27    x=192    y=4    width=8    height=19    xoffset=0    yoffset=0    xadvance=7     page=0    chnl=0
char id=28    x=200    y=4    width=8    height=19    xoffset=0    yoffset=0    xadvance=7     page=0    chnl=0
char id=29    x=208    y=4    width=8    height=19    xoffset=0    yoffset=0    xadvance=7     page=0    chnl=0
char id=30    x=216    y=4    width=8    height=19    xoffset=0    yoffset=0    xadvance=7     page=0    chnl=0
char id=31    x=224    y=4    width=8    height=19    xoffset=0    yoffset=0    xadvance=7     page=0    chnl=0
char id=32    x=232    y=4    width=3    height=19    xoffset=0    yoffset=0    xadvance=2     page=0    chnl=0
char id=33    x=235    y=4    width=3    height=19    xoffset=0    yoffset=0    xadvance=2     page=0    chnl=0
char id=34    x=238    y=4    width=6    height=19    xoffset=0    yoffset=0    xadvance=5     page=0    chnl=0
char id=35    x=244    y=4    width=9    height=19    xoffset=0    yoffset=0    xadvance=8     page=0    chnl=0
char id=36    x=0    y=24    width=7    height=19    xoffset=0    yoffset=0    xadvance=6     page=0    chnl=0
char id=37    x=7    y=24    width=8    height=19    xoffset=0    yoffset=0    xadvance=7     page=0    chnl=0
char id=38    x=15    y=24    width=8    height=19    xoffset=0    yoffset=0    xadvance=7     page=0    chnl=0
char id=39    x=23    y=24    width=4    height=19    xoffset=0    yoffset=0    xadvance=3     page=0    chnl=0
char id=40    x=27    y=24    width=6    height=19    xoffset=0    yoffset=0    xadvance=5     page=0    chnl=0
char id=41    x=33    y=24    width=5    height=19    xoffset=0    yoffset=0    xadvance=4     page=0    chnl=0
char id=42    x=38    y=24    width=8    height=19    xoffset=0    yoffset=0    xadvance=7     page=0    chnl=0
char id=43    x=46    y=24    width=8    height=19    xoffset=0    yoffset=0    xadvance=7     page=0    chnl=0
char id=44    x=54    y=24    width=3    height=19    xoffset=0    yoffset=0    xadvance=2     page=0    chnl=0
char id=45    x=57    y=24    width=5    height=19    xoffset=0    yoffset=0    xadvance=4     page=0    chnl=0
char id=46    x=62    y=24    width=3    height=19    xoffset=0    yoffset=0    xadvance=2     page=0    chnl=0
char id=47    x=65    y=24    width=7    height=19    xoffset=0    yoffset=0    xadvance=6     page=0    chnl=0
char id=48    x=72    y=24    width=7    height=19    xoffset=0    yoffset=0    xadvance=6     page=0    chnl=0
char id=49    x=79    y=24    width=4    height=19    xoffset=0    yoffset=0    xadvance=3     page=0    chnl=0
char id=50    x=83    y=24    width=7    height=19    xoffset=0    yoffset=0    xadvance=6     page=0    chnl=0
char id=51    x=90    y=24    width=7    height=19    xoffset=0    yoffset=0    xadvance=6     page=0    chnl=0
char id=52    x=97    y=24    width=7    height=19    xoffset=0    yoffset=0    xadvance=6     page=0    chnl=0
char id=53    x=104    y=24    width=7    height=19    xoffset=0    yoffset=0    xadvance=6     page=0    chnl=0
char id=54    x=111    y=24    width=7    height=19    xoffset=0    yoffset=0    xadvance=6     page=0    chnl=0
char id=55    x=118    y=24    width=6    height=19    xoffset=0    yoffset=0    xadvance=5     page=0    chnl=0
char id=56    x=124    y=24    width=7    height=19    xoffset=0    yoffset=0    xadvance=6     page=0    chnl=0
char id=57    x=131    y=24    width=7    height=19    xoffset=0    yoffset=0    xadvance=6     page=0    chnl=0
char id=58    x=138    y=24    width=4    height=19    xoffset=0    yoffset=0    xadvance=3     page=0    chnl=0
char id=59    x=142    y=24    width=4    height=19    xoffset=0    yoffset=0    xadvance=3     page=0    chnl=0
char id=60    x=146    y=24    width=6    height=19    xoffset=0    yoffset=0    xadvance=5     page=0    chnl=0
char id=61    x=152    y=24    width=7    height=19    xoffset=0    yoffset=0    xadvance=6     page=0    chnl=0
char id=62    x=159    y=24    width=6    height=19    xoffset=0    yoffset=0    xadvance=5     page=0    chnl=0
char id=63    x=165    y=24    width=7    height=19    xoffset=0    yoffset=0    xadvance=6     page=0    chnl=0
char id=64    x=172    y=24    width=9    height=19    xoffset=0    yoffset=0    xadvance=8     page=0    chnl=0
char id=65    x=181    y=24    width=7    height=19    xoffset=0    yoffset=0    xadvance=6     page=0    chnl=0
char id=66    x=188    y=24    width=7    height=19    xoffset=0    yoffset=0    xadvance=6     page=0    chnl=0
char id=67    x=195    y=24    width=7    height=19    xoffset=0    yoffset=0    xadvance=6     page=0    chnl=0
char id=68    x=202    y=24    width=7    height=19    xoffset=0    yoffset=0    xadvance=6     page=0    chnl=0
char id=69    x=209    y=24    width=5    height=19    xoffset=0    yoffset=0    xadvance=4     page=0    chnl=0
char id=70    x=214    y=24    width=5    height=19    xoffset=0    yoffset=0    xadvance=4     page=0    chnl=0
char id=71    x=219    y=24    width=7    height=19    xoffset=0    yoffset=0    xadvance=6     page=0    chnl=0
char id=72    x=226    y=24    width=7    height=19    xoffset=0    yoffset=0    xadvance=6     page=0    chnl=0
char id=73    x=233    y=24    width=3    height=19    xoffset=0    yoffset=0    xadvance=2     page=0    chnl=0
char id=74    x=236    y=24    width=7    height=19    xoffset=0    yoffset=0    xadvance=6     page=0    chnl=0
char id=75    x=243    y=24    width=6    height=19    xoffset=0    yoffset=0    xadvance=5     page=0    chnl=0
char id=76    x=249    y=24    width=5    height=19    xoffset=0    yoffset=0    xadvance=4     page=0    chnl=0
char id=77    x=0    y=44    width=8    height=19    xoffset=0    yoffset=0    xadvance=7     page=0    chnl=0
char id=78    x=8    y=44    width=7    height=19    xoffset=0    yoffset=0    xadvance=6     page=0    chnl=0
char id=79    x=15    y=44    width=7    height=19    xoffset=0    yoffset=0    xadvance=6     page=0    chnl=0
char id=80    x=22    y=44    width=7    height=19    xoffset=0    yoffset=0    xadvance=6     page=0    chnl=0
char id=81    x=29    y=44    width=7    height=19    xoffset=0    yoffset=0    xadvance=6     page=0    chnl=0
char id=82    x=36    y=44    width=7    height=19    xoffset=0    yoffset=0    xadvance=6     page=0    chnl=0
char id=83    x=43    y=44    width=7    height=19    xoffset=0    yoffset=0    xadvance=6     page=0    chnl=0
char id=84    x=50    y=44    width=7    height=19    xoffset=0    yoffset=0    xadvance=6     page=0    chnl=0
char id=85    x=57    y=44    width=7    height=19    xoffset=0    yoffset=0    xadvance=6     page=0    chnl=0
char id=86    x=64    y=44    width=7    height=19    xoffset=0    yoffset=0    xadvance=6     page=0    chnl=0
char id=87    x=71    y=44    width=11    height=19    xoffset=0    yoffset=0    xadvance=10     page=0    chnl=0
char id=88    x=82    y=44    width=8    height=19    xoffset=0    yoffset=0    xadvance=7     page=0    chnl=0
char id=89    x=90    y=44    width=7    height=19    xoffset=0    yoffset=0    xadvance=6     page=0    chnl=0
char id=90    x=97    y=44    width=7    height=19    xoffset=0    yoffset=0    xadvance=6     page=0    chnl=0
char id=91    x=104    y=44    width=5    height=19    xoffset=0    yoffset=0    xadvance=4     page=0    chnl=0
char id=92    x=109    y=44    width=7    height=19    xoffset=0    yoffset=0    xadvance=6     page=0    chnl=0
char id=93    x=116    y=44    width=6    height=19    xoffset=0    yoffset=0    xadvance=5     page=0    chnl=0
char id=94    x=122    y=44    width=7    height=19    xoffset=0    yoffset=0    xadvance=6     page=0    chnl=0
char id=95    x=129    y=44    width=6    height=19    xoffset=0    yoffset=0    xadvance=5     page=0    chnl=0
char id=96    x=135    y=44    width=7    height=19    xoffset=0    yoffset=0    xadvance=6     page=0    chnl=0
char id=97    x=142    y=44    width=6    height=19    xoffset=0    yoffset=0    xadvance=5     page=0    chnl=0
char id=98    x=148    y=44    width=6    height=19    xoffset=0    yoffset=0    xadvance=5     page=0    chnl=0
char id=99    x=154    y=44    width=6    height=19    xoffset=0    yoffset=0    xadvance=5     page=0    chnl=0
char id=100    x=160    y=44    width=6    height=19    xoffset=0    yoffset=0    xadvance=5     page=0    chnl=0
char id=101    x=166    y=44    width=6    height=19    xoffset=0    yoffset=0    xadvance=5     page=0    chnl=0
char id=102    x=172    y=44    width=3    height=19    xoffset=0    yoffset=0    xadvance=2     page=0    chnl=0
char id=103    x=175    y=44    width=6    height=19    xoffset=0    yoffset=0    xadvance=5     page=0    chnl=0
char id=104    x=181    y=44    width=6    height=19    xoffset=0    yoffset=0    xadvance=5     page=0    chnl=0
char id=105    x=187    y=44    width=3    height=19    xoffset=0    yoffset=0    xadvance=2     page=0    chnl=0
char id=106    x=190    y=44    width=3    height=19    xoffset=0    yoffset=0    xadvance=2     page=0    chnl=0
char id=107    x=193    y=44    width=6    height=19    xoffset=0    yoffset=0    xadvance=5     page=0    chnl=0
char id=108    x=199    y=44    width=3    height=19    xoffset=0    yoffset=0    xadvance=2     page=0    chnl=0
char id=109    x=202    y=44    width=9    height=19    xoffset=0    yoffset=0    xadvance=8     page=0    chnl=0
char id=110    x=211    y=44    width=6    height=19    xoffset=0    yoffset=0    xadvance=5     page=0    chnl=0
char id=111    x=217    y=44    width=6    height=19    xoffset=0    yoffset=0    xadvance=5     page=0    chnl=0
char id=112    x=223    y=44    width=6    height=19    xoffset=0    yoffset=0    xadvance=5     page=0    chnl=0
char id=113    x=229    y=44    width=6    height=19    xoffset=0    yoffset=0    xadvance=5     page=0    chnl=0
char id=114    x=235    y=44    width=5    height=19    xoffset=0    yoffset=0    xadvance=4     page=0    chnl=0
char id=115    x=240    y=44    width=6    height=19    xoffset=0    yoffset=0    xadvance=5     page=0    chnl=0
char id=116    x=246    y=44    width=3    height=19    xoffset=0    yoffset=0    xadvance=2     page=0    chnl=0
char id=117    x=249    y=44    width=6    height=19    xoffset=0    yoffset=0    xadvance=5     page=0    chnl=0
char id=118    x=0    y=64    width=7    height=19    xoffset=0    yoffset=0    xadvance=6     page=0    chnl=0
char id=119    x=7    y=64    width=11    height=19    xoffset=0    yoffset=0    xadvance=10     page=0    chnl=0
char id=120    x=18    y=64    width=7    height=19    xoffset=0    yoffset=0    xadvance=6     page=0    chnl=0
char id=121    x=25    y=64    width=7    height=19    xoffset=0    yoffset=0    xadvance=6     page=0    chnl=0
char id=122    x=32    y=64    width=6    height=19    xoffset=0    yoffset=0    xadvance=5     page=0    chnl=0
char id=123    x=38    y=64    width=6    height=19    xoffset=0    yoffset=0    xadvance=5     page=0    chnl=0
char id=124    x=44    y=64    width=3    height=19    xoffset=0    yoffset=0    xadvance=2     page=0    chnl=0
char id=125    x=47    y=64    width=6    height=19    xoffset=0    yoffset=0    xadvance=5     page=0    chnl=0
char id=126    x=53    y=64    width=8    height=19    xoffset=0    yoffset=0    xadvance=7     page=0    chnl=0
char id=127    x=61    y=64    width=8    height=19    xoffset=0    yoffset=0    xadvance=7     page=0    chnl=0
char id=128    x=69    y=64    width=8    height=19    xoffset=0    yoffset=0    xadvance=7     page=0    chnl=0
char id=129    x=77    y=64    width=8    height=19    xoffset=0    yoffset=0    xadvance=7     page=0    chnl=0
char id=130    x=85    y=64    width=8    height=19    xoffset=0    yoffset=0    xadvance=7     page=0    chnl=0
char id=131    x=93    y=64    width=8    height=19    xoffset=0    yoffset=0    xadvance=7     page=0    chnl=0
char id=132    x=101    y=64    width=8    height=19    xoffset=0    yoffset=0    xadvance=7     page=0    chnl=0
char id=133    x=109    y=64    width=8    height=19    xoffset=0    yoffset=0    xadvance=7     page=0    chnl=0
char id=134    x=117    y=64    width=8    height=19    xoffset=0    yoffset=0    xadvance=7     page=0    chnl=0
char id=135    x=125    y=64    width=8    height=19    xoffset=0    yoffset=0    xadvance=7     page=0    chnl=0
char id=136    x=133    y=64    width=8    height=19    xoffset=0    yoffset=0    xadvance=7     page=0    chnl=0
char id=137    x=141    y=64    width=8    height=19    xoffset=0    yoffset=0    xadvance=7     page=0    chnl=0
char id=138    x=149    y=64    width=8    height=19    xoffset=0    yoffset=0    xadvance=7     page=0    chnl=0
char id=139    x=157    y=64    width=8    height=19    xoffset=0    yoffset=0    xadvance=7     page=0    chnl=0
char id=140    x=165    y=64    width=8    height=19    xoffset=0    yoffset=0    xadvance=7     page=0    chnl=0
char id=141    x=173    y=64    width=8    height=19    xoffset=0    yoffset=0    xadvance=7     page=0    chnl=0
char id=142    x=181    y=64    width=8    height=19    xoffset=0    yoffset=0    xadvance=7     page=0    chnl=0
char id=143    x=189    y=64    width=8    height=19    xoffset=0    yoffset=0    xadvance=7     page=0    chnl=0
char id=144    x=197    y=64    width=8    height=19    xoffset=0    yoffset=0    xadvance=7     page=0    chnl=0
char id=145    x=205    y=64    width=8    height=19    xoffset=0    yoffset=0    xadvance=7     page=0    chnl=0
char id=146    x=213    y=64    width=8    height=19    xoffset=0    yoffset=0    xadvance=7     page=0    chnl=0
char id=147    x=221    y=64    width=8    height=19    xoffset=0    yoffset=0    xadvance=7     page=0    chnl=0
char id=148    x=229    y=64    width=8    height=19    xoffset=0    yoffset=0    xadvance=7     page=0    chnl=0
char id=149    x=237    y=64    width=8    height=19    xoffset=0    yoffset=0    xadvance=7     page=0    chnl=0
char id=150    x=245    y=64    width=8    height=19    xoffset=0    yoffset=0    xadvance=7     page=0    chnl=0
char id=151    x=0    y=84    width=8    height=19    xoffset=0    yoffset=0    xadvance=7     page=0    chnl=0
char id=152    x=8    y=84    width=8    height=19    xoffset=0    yoffset=0    xadvance=7     page=0    chnl=0
char id=153    x=16    y=84    width=8    height=19    xoffset=0    yoffset=0    xadvance=7     page=0    chnl=0
char id=154    x=24    y=84    width=8    height=19    xoffset=0    yoffset=0    xadvance=7     page=0    chnl=0
char id=155    x=32    y=84    width=8    height=19    xoffset=0    yoffset=0    xadvance=7     page=0    chnl=0
char id=156    x=40    y=84    width=8    height=19    xoffset=0    yoffset=0    xadvance=7     page=0    chnl=0
char id=157    x=48    y=84    width=8    height=19    xoffset=0    yoffset=0    xadvance=7     page=0    chnl=0
char id=158    x=56    y=84    width=8    height=19    xoffset=0    yoffset=0    xadvance=7     page=0    chnl=0
char id=159    x=64    y=84    width=8    height=19    xoffset=0    yoffset=0    xadvance=7     page=0    chnl=0
char id=160    x=72    y=84    width=2    height=19    xoffset=0    yoffset=0    xadvance=1     page=0    chnl=0
char id=161    x=74    y=84    width=3    height=19    xoffset=0    yoffset=0    xadvance=2     page=0    chnl=0
char id=162    x=77    y=84    width=7    height=19    xoffset=0    yoffset=0    xadvance=6     page=0    chnl=0
char id=163    x=84    y=84    width=7    height=19    xoffset=0    yoffset=0    xadvance=6     page=0    chnl=0
char id=164    x=91    y=84    width=9    height=19    xoffset=0    yoffset=0    xadvance=8     page=0    chnl=0
char id=165    x=100    y=84    width=6    height=19    xoffset=0    yoffset=0    xadvance=5     page=0    chnl=0
char id=166    x=106    y=84    width=3    height=19    xoffset=0    yoffset=0    xadvance=2     page=0    chnl=0
char id=167    x=109    y=84    width=7    height=19    xoffset=0    yoffset=0    xadvance=6     page=0    chnl=0
char id=168    x=116    y=84    width=7    height=19    xoffset=0    yoffset=0    xadvance=6     page=0    chnl=0
char id=169    x=123    y=84    width=9    height=19    xoffset=0    yoffset=0    xadvance=8     page=0    chnl=0
char id=170    x=132    y=84    width=6    height=19    xoffset=0    yoffset=0    xadvance=5     page=0    chnl=0
char id=171    x=138    y=84    width=8    height=19    xoffset=0    yoffset=0    xadvance=7     page=0    chnl=0
char id=172    x=146    y=84    width=7    height=19    xoffset=0    yoffset=0    xadvance=6     page=0    chnl=0
char id=173    x=153    y=84    width=7    height=19    xoffset=0    yoffset=0    xadvance=6     page=0    chnl=0
char id=174    x=160    y=84    width=9    height=19    xoffset=0    yoffset=0    xadvance=8     page=0    chnl=0
char id=175    x=169    y=84    width=6    height=19    xoffset=0    yoffset=0    xadvance=5     page=0    chnl=0
char id=176    x=175    y=84    width=5    height=19    xoffset=0    yoffset=0    xadvance=4     page=0    chnl=0
char id=177    x=180    y=84    width=7    height=19    xoffset=0    yoffset=0    xadvance=6     page=0    chnl=0
char id=178    x=187    y=84    width=4    height=19    xoffset=0    yoffset=0    xadvance=3     page=0    chnl=0
char id=179    x=191    y=84    width=4    height=19    xoffset=0    yoffset=0    xadvance=3     page=0    chnl=0
char id=180    x=195    y=84    width=7    height=19    xoffset=0    yoffset=0    xadvance=6     page=0    chnl=0
char id=181    x=202    y=84    width=6    height=19    xoffset=0    yoffset=0    xadvance=5     page=0    chnl=0
char id=182    x=208    y=84    width=8    height=19    xoffset=0    yoffset=0    xadvance=7     page=0    chnl=0
char id=183    x=216    y=84    width=4    height=19    xoffset=0    yoffset=0    xadvance=3     page=0    chnl=0
char id=184    x=220    y=84    width=7    height=19    xoffset=0    yoffset=0    xadvance=6     page=0    chnl=0
char id=185    x=227    y=84    width=3    height=19    xoffset=0    yoffset=0    xadvance=2     page=0    chnl=0
char id=186    x=230    y=84    width=6    height=19    xoffset=0    yoffset=0    xadvance=5     page=0    chnl=0
char id=187    x=236    y=84    width=8    height=19    xoffset=0    yoffset=0    xadvance=7     page=0    chnl=0
char id=188    x=244    y=84    width=9    height=19    xoffset=0    yoffset=0    xadvance=8     page=0    chnl=0
char id=189    x=0    y=104    width=9    height=19    xoffset=0    yoffset=0    xadvance=8     page=0    chnl=0
char id=190    x=9    y=104    width=10    height=19    xoffset=0    yoffset=0    xadvance=9     page=0    chnl=0
char id=191    x=19    y=104    width=7    height=19    xoffset=0    yoffset=0    xadvance=6     page=0    chnl=0
char id=192    x=26    y=104    width=7    height=19    xoffset=0    yoffset=0    xadvance=6     page=0    chnl=0
char id=193    x=33    y=104    width=7    height=19    xoffset=0    yoffset=0    xadvance=6     page=0    chnl=0
char id=194    x=40    y=104    width=7    height=19    xoffset=0    yoffset=0    xadvance=6     page=0    chnl=0
char id=195    x=47    y=104    width=7    height=19    xoffset=0    yoffset=0    xadvance=6     page=0    chnl=0
char id=196    x=54    y=104    width=7    height=19    xoffset=0    yoffset=0    xadvance=6     page=0    chnl=0
char id=197    x=61    y=104    width=7    height=19    xoffset=0    yoffset=0    xadvance=6     page=0    chnl=0
char id=198    x=68    y=104    width=10    height=19    xoffset=0    yoffset=0    xadvance=9     page=0    chnl=0
char id=199    x=78    y=104    width=7    height=19    xoffset=0    yoffset=0    xadvance=6     page=0    chnl=0
char id=200    x=85    y=104    width=5    height=19    xoffset=0    yoffset=0    xadvance=4     page=0    chnl=0
char id=201    x=90    y=104    width=5    height=19    xoffset=0    yoffset=0    xadvance=4     page=0    chnl=0
char id=202    x=95    y=104    width=5    height=19    xoffset=0    yoffset=0    xadvance=4     page=0    chnl=0
char id=203    x=100    y=104    width=5    height=19    xoffset=0    yoffset=0    xadvance=4     page=0    chnl=0
char id=204    x=105    y=104    width=3    height=19    xoffset=0    yoffset=0    xadvance=2     page=0    chnl=0
char id=205    x=108    y=104    width=3    height=19    xoffset=0    yoffset=0    xadvance=2     page=0    chnl=0
char id=206    x=111    y=104    width=3    height=19    xoffset=0    yoffset=0    xadvance=2     page=0    chnl=0
char id=207    x=114    y=104    width=3    height=19    xoffset=0    yoffset=0    xadvance=2     page=0    chnl=0
char id=208    x=117    y=104    width=7    height=19    xoffset=0    yoffset=0    xadvance=6     page=0    chnl=0
char id=209    x=124    y=104    width=7    height=19    xoffset=0    yoffset=0    xadvance=6     page=0    chnl=0
char id=210    x=131    y=104    width=7    height=19    xoffset=0    yoffset=0    xadvance=6     page=0    chnl=0
char id=211    x=138    y=104    width=7    height=19    xoffset=0    yoffset=0    xadvance=6     page=0    chnl=0
char id=212    x=145    y=104    width=7    height=19    xoffset=0    yoffset=0    xadvance=6     page=0    chnl=0
char id=213    x=152    y=104    width=7    height=19    xoffset=0    yoffset=0    xadvance=6     page=0    chnl=0
char id=214    x=159    y=104    width=7    height=19    xoffset=0    yoffset=0    xadvance=6     page=0    chnl=0
char id=215    x=166    y=104    width=7    height=19    xoffset=0    yoffset=0    xadvance=6     page=0    chnl=0
char id=216    x=173    y=104    width=7    height=19    xoffset=0    yoffset=0    xadvance=6     page=0    chnl=0
char id=217    x=180    y=104    width=7    height=19    xoffset=0    yoffset=0    xadvance=6     page=0    chnl=0
char id=218    x=187    y=104    width=7    height=19    xoffset=0    yoffset=0    xadvance=6     page=0    chnl=0
char id=219    x=194    y=104    width=7    height=19    xoffset=0    yoffset=0    xadvance=6     page=0    chnl=0
char id=220    x=201    y=104    width=7    height=19    xoffset=0    yoffset=0    xadvance=6     page=0    chnl=0
char id=221    x=208    y=104    width=7    height=19    xoffset=0    yoffset=0    xadvance=6     page=0    chnl=0
char id=222    x=215    y=104    width=7    height=19    xoffset=0    yoffset=0    xadvance=6     page=0    chnl=0
char id=223    x=222    y=104    width=6    height=19    xoffset=0    yoffset=0    xadvance=5     page=0    chnl=0
char id=224    x=228    y=104    width=6    height=19    xoffset=0    yoffset=0    xadvance=5     page=0    chnl=0
char id=225    x=234    y=104    width=6    height=19    xoffset=0    yoffset=0    xadvance=5     page=0    chnl=0
char id=226    x=240    y=104    width=6    height=19    xoffset=0    yoffset=0    xadvance=5     page=0    chnl=0
char id=227    x=246    y=104    width=6    height=19    xoffset=0    yoffset=0    xadvance=5     page=0    chnl=0
char id=228    x=0    y=124    width=6    height=19    xoffset=0    yoffset=0    xadvance=5     page=0    chnl=0
char id=229    x=6    y=124    width=6    height=19    xoffset=0    yoffset=0    xadvance=5     page=0    chnl=0
char id=230    x=12    y=124    width=9    height=19    xoffset=0    yoffset=0    xadvance=8     page=0    chnl=0
char id=231    x=21    y=124    width=6    height=19    xoffset=0    yoffset=0    xadvance=5     page=0    chnl=0
char id=232    x=27    y=124    width=6    height=19    xoffset=0    yoffset=0    xadvance=5     page=0    chnl=0
char id=233    x=33    y=124    width=6    height=19    xoffset=0    yoffset=0    xadvance=5     page=0    chnl=0
char id=234    x=39    y=124    width=6    height=19    xoffset=0    yoffset=0    xadvance=5     page=0    chnl=0
char id=235    x=45    y=124    width=6    height=19    xoffset=0    yoffset=0    xadvance=5     page=0    chnl=0
char id=236    x=51    y=124    width=3    height=19    xoffset=0    yoffset=0    xadvance=2     page=0    chnl=0
char id=237    x=54    y=124    width=3    height=19    xoffset=0    yoffset=0    xadvance=2     page=0    chnl=0
char id=238    x=57    y=124    width=3    height=19    xoffset=0    yoffset=0    xadvance=2     page=0    chnl=0
char id=239    x=60    y=124    width=3    height=19    xoffset=0    yoffset=0    xadvance=2     page=0    chnl=0
char id=240    x=63    y=124    width=6    height=19    xoffset=0    yoffset=0    xadvance=5     page=0    chnl=0
char id=241    x=69    y=124    width=6    height=19    xoffset=0    yoffset=0    xadvance=5     page=0    chnl=0
char id=242    x=75    y=124    width=6    height=19    xoffset=0    yoffset=0    xadvance=5     page=0    chnl=0
char id=243    x=81    y=124    width=6    height=19    xoffset=0    yoffset=0    xadvance=5     page=0    chnl=0
char id=244    x=87    y=124    width=6    height=19    xoffset=0    yoffset=0    xadvance=5     page=0    chnl=0
char id=245    x=93    y=124    width=6    height=19    xoffset=0    yoffset=0    xadvance=5     page=0    chnl=0
char id=246    x=99    y=124    width=6    height=19    xoffset=0    yoffset=0    xadvance=5     page=0    chnl=0
char id=247    x=105    y=124    width=7    height=19    xoffset=0    yoffset=0    xadvance=6     page=0    chnl=0
char id=248    x=112    y=124    width=6    height=19    xoffset=0    yoffset=0    xadvance=5     page=0    chnl=0
char id=249    x=118    y=124    width=6    height=19    xoffset=0    yoffset=0    xadvance=5     page=0    chnl=0
char id=250    x=124    y=124    width=6    height=19    xoffset=0    yoffset=0    xadvance=5     page=0    chnl=0
char id=251    x=130    y=124    width=6    height=19    xoffset=0    yoffset=0    xadvance=5     page=0    chnl=0
char id=252    x=136    y=124    width=6    height=19    xoffset=0    yoffset=0    xadvance=5     page=0    chnl=0
char id=253    x=142    y=124    width=7    height=19    xoffset=0    yoffset=0    xadvance=6     page=0    chnl=0
char id=254    x=149    y=124    width=6    height=19    xoffset=0    yoffset=0    xadvance=5     page=0    chnl=0
char id=255    x=155    y=124    width=7    height=19    xoffset=0    yoffset=0    xadvance=6     page=0    chnl=0
